<?xml version="1.0" encoding="utf-8"?>
<!-- Generator: Adobe Illustrator 24.1.3, SVG Export Plug-In . SVG Version: 6.00 Build 0)  -->
<svg version="1.0" id="Layer_1" xmlns="http://www.w3.org/2000/svg" xmlns:xlink="http://www.w3.org/1999/xlink" x="0px" y="0px"
	 viewBox="0 0 280.2 81.8" style="enable-background:new 0 0 280.2 81.8;" xml:space="preserve">
<linearGradient id="SVGID_1_" gradientUnits="userSpaceOnUse" x1="0.7926" y1="41.0826" x2="80.6274" y2="41.0826">
	<stop  offset="0" style="stop-color:#906026"/>
	<stop  offset="0.5" style="stop-color:#FAF4A2"/>
	<stop  offset="1" style="stop-color:#906026"/>
</linearGradient>
<path style="fill:url(#SVGID_1_);" d="M40.7,1.2c-22,0-39.9,17.9-39.9,39.9S18.7,81,40.7,81s39.9-17.9,39.9-39.9S62.7,1.2,40.7,1.2
	L40.7,1.2z M40.7,79C19.8,79,2.8,62,2.8,41.1s17-37.9,37.9-37.9s37.9,17,37.9,37.9S61.6,79,40.7,79L40.7,79z"/>
<linearGradient id="SVGID_2_" gradientUnits="userSpaceOnUse" x1="11.034" y1="33.8338" x2="70.386" y2="33.8338">
	<stop  offset="0" style="stop-color:#906026"/>
	<stop  offset="0.5" style="stop-color:#FAF4A2"/>
	<stop  offset="1" style="stop-color:#906026"/>
</linearGradient>
<path style="fill:url(#SVGID_2_);" d="M69.5,56.8h-1.9V40.6L60,32.8c0,0-0.1-0.1-0.1-0.1c0,0-0.1,0-0.2-0.1s-0.1,0-0.2,0
	c-0.1,0-0.1,0-0.2,0s-0.1,0-0.2,0c-0.1,0-0.1,0-0.2,0.1c-0.1,0-0.1,0-0.1,0.1c0,0-0.1,0.1-0.1,0.1c0,0-0.1,0.1-0.1,0.1
	c0,0-0.1,0.1-0.1,0.1c0,0.1,0,0.1-0.1,0.2c0,0.1,0,0.1,0,0.2c0,0.1,0,0.1,0,0.2c0,0.1,0,0.1,0,0.2c0,0.1,0,0.1,0.1,0.2
	c0,0.1,0.1,0.1,0.1,0.1l7.1,7.3v15.4h-9.3V25.3L40.7,9.1L24.9,25.3v31.4h-9.3V41.4l7.1-7.3c0,0,0.1-0.1,0.1-0.1
	c0-0.1,0.1-0.1,0.1-0.2c0-0.1,0-0.1,0.1-0.2c0-0.1,0-0.1,0-0.2c0-0.1,0-0.1,0-0.2c0-0.1,0-0.1-0.1-0.2c0-0.1-0.1-0.1-0.1-0.2
	c0-0.1-0.1-0.1-0.1-0.1c0,0-0.1-0.1-0.1-0.1c-0.1,0-0.1-0.1-0.2-0.1c-0.1,0-0.1,0-0.2-0.1c-0.1,0-0.1,0-0.2,0c-0.1,0-0.1,0-0.2,0
	c-0.1,0-0.1,0-0.2,0.1c-0.1,0-0.1,0.1-0.2,0.1c-0.1,0-0.1,0.1-0.1,0.1l-7.6,7.9v16.1H12c-0.1,0-0.1,0-0.2,0c-0.1,0-0.1,0-0.2,0.1
	s-0.1,0.1-0.2,0.1c-0.1,0-0.1,0.1-0.1,0.1c0,0-0.1,0.1-0.1,0.1c0,0.1-0.1,0.1-0.1,0.2s0,0.1-0.1,0.2c0,0.1,0,0.1,0,0.2
	c0,0.1,0,0.1,0,0.2c0,0.1,0,0.1,0.1,0.2s0.1,0.1,0.1,0.2c0,0.1,0.1,0.1,0.1,0.1c0,0,0.1,0.1,0.1,0.1c0.1,0,0.1,0.1,0.2,0.1
	c0.1,0,0.1,0,0.2,0.1c0.1,0,0.1,0,0.2,0h57.5c0.1,0,0.1,0,0.2,0c0.1,0,0.1,0,0.2-0.1c0.1,0,0.1-0.1,0.2-0.1c0.1,0,0.1-0.1,0.1-0.1
	c0,0,0.1-0.1,0.1-0.1c0-0.1,0.1-0.1,0.1-0.2c0-0.1,0-0.1,0.1-0.2c0-0.1,0-0.1,0-0.2c0-0.1,0-0.1,0-0.2c0-0.1,0-0.1-0.1-0.2
	c0-0.1-0.1-0.1-0.1-0.2c0-0.1-0.1-0.1-0.1-0.1c0,0-0.1-0.1-0.1-0.1c-0.1,0-0.1-0.1-0.2-0.1c-0.1,0-0.1,0-0.2-0.1
	C69.6,56.8,69.5,56.8,69.5,56.8L69.5,56.8z M33.3,23.8c-0.1,0-0.1,0-0.2,0c-0.1,0-0.1,0-0.2,0.1c-0.1,0-0.1,0.1-0.2,0.1
	c-0.1,0-0.1,0.1-0.1,0.1c0,0-0.1,0.1-0.1,0.1c0,0.1-0.1,0.1-0.1,0.2s0,0.1-0.1,0.2s0,0.1,0,0.2v32h-5.6V26.1l13-13.4v44.1h-5.6v-32
	c0-0.1,0-0.1,0-0.2s0-0.1-0.1-0.2c0-0.1-0.1-0.1-0.1-0.2c0-0.1-0.1-0.1-0.1-0.1c0,0-0.1-0.1-0.1-0.1c-0.1,0-0.1-0.1-0.2-0.1
	c-0.1,0-0.1,0-0.2-0.1S33.4,23.8,33.3,23.8L33.3,23.8z M48.1,23.8c-0.1,0-0.1,0-0.2,0c-0.1,0-0.1,0-0.2,0.1c-0.1,0-0.1,0.1-0.2,0.1
	c-0.1,0-0.1,0.1-0.1,0.1c0,0-0.1,0.1-0.1,0.1c0,0.1-0.1,0.1-0.1,0.2s0,0.1-0.1,0.2c0,0.1,0,0.1,0,0.2v32h-5.6V12.7l13,13.4v30.7
	h-5.6v-32c0-0.1,0-0.1,0-0.2s0-0.1-0.1-0.2c0-0.1-0.1-0.1-0.1-0.2c0-0.1-0.1-0.1-0.1-0.1c0,0-0.1-0.1-0.1-0.1
	c-0.1,0-0.1-0.1-0.2-0.1c-0.1,0-0.1,0-0.2-0.1S48.2,23.8,48.1,23.8L48.1,23.8z"/>
<g>
	<g>
		<g>
			<path style="fill:#FFFFFF;" d="M115.9,11.3c0,0.2-0.3,0.3-0.8,0.3c-0.1,0-0.4,0-0.8,0c-0.1,0-0.3,0-0.6,0c-0.7,0-1.1,0.2-1.3,0.5
				c-0.1,0.2-0.1,0.5-0.1,0.9v15.4c0,4-0.8,6.9-2.3,8.7c-1.5,1.8-4,2.7-7.3,2.7c-4,0-7.6-1.1-9.2-3.4c-1.1-1.5-1.6-4-1.6-7.5V12.7
				c-0.1-0.5-0.4-0.8-1-0.9c-0.2,0-0.7,0-1.6,0c-0.5-0.1-0.7-0.2-0.7-0.4c0-0.2,0.2-0.4,0.6-0.4H90c0.1,0,0.5,0,1,0
				c0.4,0,0.8,0,1.2,0h7.2c0.1,0,0.3,0,0.5,0c0.5,0,0.7,0.2,0.7,0.5c0,0.2-0.1,0.3-0.3,0.3c-0.2,0-0.7,0.1-1.7,0.1
				c-0.4,0-0.7,0-0.8,0.1c-0.3,0.1-0.4,0.3-0.5,0.6c0,0.1,0,0.9,0,2.3v14.7c0,3.6,0.6,6.1,1.8,7.4c1.2,1.3,2.4,2,4.7,2
				c4.2,0,6.3-2.4,6.8-7.1c0.1-0.7,0.1-3.7,0.1-9v-2.3v-3.3v-2.8c0-0.3,0-0.6,0-0.9c0-0.4,0-0.5,0-0.5c0-0.6-0.3-1-0.9-1.1
				c-0.2-0.1-0.8-0.1-1.7-0.1c-0.6,0-0.8-0.2-0.8-0.5c0-0.2,0.2-0.4,0.6-0.4c0.2,0,0.4,0,0.5,0c0.3,0,1.9,0,4,0c0.3,0,0.7,0,1,0
				c0.4,0,0.6,0,0.8,0h0.6C115.6,10.9,115.9,11.1,115.9,11.3z"/>
		</g>
		<g>
			<path style="fill:#FFFFFF;" d="M152.3,11.3c0,0.3-0.3,0.4-1,0.4h-0.9h-0.7c-0.4,0-0.7,0.1-0.8,0.2c-0.1,0.2-0.1,0.6-0.1,1.4V37
				c0,1.5,0,2.3,0,2.5c0,0.2-0.1,0.4-0.2,0.4c-0.2,0-0.4-0.2-0.6-0.5l-5.2-7.7c-3-4.5-8-10.1-12.3-16.8V38c0,0.4,0.2,0.6,0.6,0.7
				c0.4,0.1,1.3,0.2,2.7,0.2c0.4,0,0.5,0.1,0.5,0.3c0,0.3-0.4,0.4-1.1,0.4c-0.2,0-1,0-2.3-0.1c-0.4,0-0.9,0-1.3,0c0,0-0.2,0-0.7,0.1
				c-0.5,0.1-1.3,0.1-2.3,0.1h-0.4c-0.6,0-0.9-0.1-0.9-0.4c0-0.2,0.3-0.4,0.8-0.4c1.6,0,2.5-0.1,2.8-0.3c0.3-0.2,0.4-0.8,0.4-1.8
				V16.4c0-2.3-0.5-3.7-1.4-4.3c-0.4-0.3-1.2-0.4-2.3-0.4c-0.7,0-1.1-0.1-1.1-0.4c0-0.3,0.2-0.4,0.6-0.4c0.5,0,1.2,0,2.1,0.1
				c0.8,0.1,1.3,0.1,1.3,0.1c0.1,0,3.3,0,4,0c0.9,0,1.8,0,2.6-0.1l12.5,19.2V13.8c0-0.9,0-1.4,0-1.5c0-0.2-0.1-0.3-0.3-0.4
				c-0.2-0.1-0.8-0.1-1.9-0.1c-1,0-1.5-0.1-1.5-0.4c0-0.3,0.3-0.4,1-0.4h1.4c0.4,0,0.7,0,1.1,0c0.4,0,0.7,0,0.8,0c0,0,0.3,0,0.7,0
				c0.4,0,0.8,0,1.2,0h1.3C152,10.9,152.3,11,152.3,11.3z"/>
		</g>
		<g>
			<path style="fill:#FFFFFF;" d="M174.7,39.2c0,0.2-0.2,0.4-0.5,0.4h-0.4c-0.2-0.1-3.3-0.1-6.8-0.1c-0.7,0-1.4,0-2,0.1
				c-0.4,0-0.9,0-1.6,0c-0.4,0-0.5-0.1-0.5-0.4c0-0.2,0.4-0.3,1.1-0.4c1.1,0,1.7-0.2,1.9-0.4c0.2-0.2,0.3-1,0.3-2.4V14.3
				c0-1.3-0.1-2.1-0.2-2.3c-0.2-0.3-0.9-0.4-2.3-0.5c-0.5,0-0.8-0.1-0.8-0.3c0-0.2,0.2-0.3,0.5-0.3h6.8c0.4,0,1.2,0,2.4,0l1.6,0
				c0.4,0,0.7,0.1,0.7,0.4c0,0.2-0.6,0.3-1.8,0.4c-0.7,0-1.1,0.2-1.3,0.4c-0.2,0.2-0.2,0.8-0.2,1.7v22c0,1.6,0.1,2.4,0.2,2.6
				c0.3,0.3,1.2,0.5,2.6,0.5C174.5,38.8,174.7,39,174.7,39.2z"/>
		</g>
		<g>
			<path style="fill:#FFFFFF;" d="M209.7,19.2c0,0.4-1.3,0.6-1.6,0.6c-0.3,0-0.5-0.3-0.6-1c-0.3-2-1-4.9-2-5.8
				c-0.6-0.6-1.6-0.9-3-1.1c-0.5-0.1-1.6-0.1-3.2-0.1c-1.2,0-1.5,0-3.3,0.1V24c3.5,0,3.8-0.2,4.6-0.7c0.8-0.5,1.3-1.8,1.5-4.1
				c0.1-0.6,0.2-0.9,0.5-0.9c0.3,0,0.4,0.2,0.4,0.6c0,0.2,0,0.5,0,0.6c-0.1,1.9-0.1,3.7-0.1,5.3c0,2.1,0,3.7,0.1,4.9
				c0,0.1,0,0.3,0,0.5c0,0.3-0.1,0.5-0.4,0.5c-0.2,0-0.4-0.1-0.4-0.2c-0.1-0.2-0.1-0.8-0.3-1.9c-0.2-1.7-0.6-2.7-1.3-3.1
				c-0.6-0.4-1.9-0.6-3.8-0.6c-1,0-0.1,0-0.8,0.1v4.2v8.1c0,0.8,0.3,1.3,0.9,1.5c0.3,0.1,0.9,0.2,2,0.1c0.4,0,0.6,0.1,0.6,0.3
				c0,0.2-0.3,0.4-0.8,0.4h-0.4c-0.4,0-0.9,0-1.5,0c-0.6,0-1,0-1.3,0H188c-0.5,0-0.8-0.1-0.8-0.3c0-0.2,0.5-0.4,1.4-0.4
				c0.9-0.1,1.5-0.2,1.6-0.4c0.2-0.2,0.2-0.8,0.2-1.9V12.8c0-0.5-0.2-0.8-0.4-0.9c-0.3-0.1-1-0.2-2.1-0.2c-0.4,0-0.7-0.1-0.7-0.4
				c0-0.2,0.2-0.4,0.7-0.4h0.6c-0.1,0,2.8,0,5.5,0c2.7,0,4.8,0,6.5,0c4.6,0,7.4-0.1,8.4-0.2c0,0.4,0.1,1.4,0.2,3.1
				c0.1,1.2,0.2,3.6,0.3,4.5C209.7,18.6,209.7,19,209.7,19.2z"/>
		</g>
		<g>
			<path style="fill:#FFFFFF;" d="M241.5,39.3c0,0.2-0.2,0.4-0.6,0.4c-0.3,0-0.5,0-0.7,0l-6.1-0.2l-5.1,0.2c-0.2,0-0.4,0-0.6,0
				c-0.5,0-0.8-0.1-0.8-0.4c0-0.3,0.4-0.5,1.1-0.5c2.4,0,3.6-0.3,3.6-0.7c0,0,0-0.1-0.1-0.3l-0.3-1.1l-0.2-0.6
				c-0.2-0.9-0.8-2.7-1.8-5.6h-8.7c-1.6,4.4-2.4,6.9-2.4,7.6c0,0.4,0.2,0.6,0.5,0.7c0.1,0,0.8,0.1,2,0.2c0.8,0,1.2,0.2,1.2,0.4
				c0,0.3-0.4,0.4-1.1,0.4c-1.2,0-2.7-0.1-4.3-0.2c-0.4,0-0.8,0-1.3,0c-0.4,0-0.9,0-1.3,0.1c-0.2,0-0.4,0.1-0.5,0.1
				c-0.4,0-0.6-0.1-0.6-0.4c0-0.2,0.4-0.4,1.3-0.4c0.9,0,1.5-0.2,1.8-0.4c0.4-0.2,0.7-0.7,0.9-1.3c3.5-10.1,6.3-18.3,8.5-24.4
				c0.1-0.3,0.2-0.7,0.4-1.1l0.2-0.8c0.1-0.3,0.2-0.5,0.3-0.5c0.1,0,1.1,0.1,1.2,0.2c0.4,1.1,1.1,3.3,2.4,6.7
				c1,2.7,3.4,9.4,7.3,20.1c0.2,0.6,0.5,1,0.8,1.2c0.3,0.2,1,0.3,2.1,0.3C241.2,38.9,241.5,39,241.5,39.3z M229.6,29.4
				c-0.4-1.2-1.2-3.3-2.2-6.1l-1.9-5.7c-1.1,3-2.5,7-4.1,11.8H229.6z"/>
		</g>
		<g>
			<path style="fill:#FFFFFF;" d="M278.8,39.3c0,0.2-0.3,0.4-0.9,0.4h-0.4c-0.4,0-1.1,0-2.1,0c-1,0-3,0-3.5,0c-0.8,0-1.8,0-2.8,0
				c-1.1,0-1.8,0-2.2,0h-0.3c-0.6,0-0.9-0.1-0.9-0.4c0-0.3,0.4-0.4,1.2-0.4c1.4,0,2.2-0.2,2.5-0.5c0.1-0.1,0.2-1.1,0.2-2.8V14.2
				c0,0-0.1,0.5-0.4,1.4c-1.1,3.3-3.3,8.3-5.4,15l-1.9,6.6c-0.4,1.3-0.6,1.9-0.8,1.9c-0.2,0-0.4-0.3-0.6-1c-0.8-2.5-3-8.7-6.6-18.7
				l-1.6-4.4c0,0.5,0,1.2,0,2.1v13.4c0,5,0,7.6,0.1,7.6c0.2,0.4,0.8,0.5,1.9,0.5c0.9,0,1.3,0.1,1.3,0.4c0,0.3-0.3,0.5-0.9,0.5
				c-0.4,0-0.7,0-1-0.1c-0.4-0.1-0.7-0.1-1-0.1l-4.7,0.2c-0.5,0-0.7-0.1-0.7-0.4c0-0.3,0.8-0.4,2.3-0.5c0.6,0,1-0.1,1.1-0.3
				s0.2-0.9,0.2-2.1V16.6c0-2.3,0-3.5-0.1-3.7c-0.1-0.4-0.3-0.6-0.7-0.8c-0.4-0.1-1.1-0.2-2.3-0.3c-0.4,0-0.6-0.2-0.6-0.4
				c0-0.3,0.4-0.5,1.2-0.5c0.1,0,0.3,0,0.7,0h2.1c1.6,0,4.5,0,5.2,0c0.1,0.4,0.9,2.5,2.4,6.5c0.6,1.6,1.3,4.1,4.1,12
				c0.5-1.8,0.3-1.2,0.8-2.9l5-13.6c0.2-0.8,0.5-1.4,0.7-1.9l7.3,0c0.9,0,1.4,0,1.5,0.1c0.1,0.1,0.2,0.2,0.2,0.4
				c0,0.3-0.2,0.4-0.7,0.4c-0.8,0-1.3,0-1.5,0.1c-0.6,0.1-1.1,0.3-1.3,0.7c-0.1,0.2-0.2,1.8-0.2,4.8v19.2c0,1.1,0.1,1.7,0.3,1.9
				c0.4,0.2,1.2,0.4,2.6,0.4h0.2C278.5,38.9,278.8,39,278.8,39.3z"/>
		</g>
	</g>
	<g>
		<g>
			<linearGradient id="SVGID_3_" gradientUnits="userSpaceOnUse" x1="87.9733" y1="24.5021" x2="277.4843" y2="33.5314">
				<stop  offset="0" style="stop-color:#616264"/>
				<stop  offset="0.5" style="stop-color:#E6E7E8"/>
				<stop  offset="1" style="stop-color:#616264"/>
			</linearGradient>
			<path style="fill:url(#SVGID_3_);" d="M115.9,11.3c0,0.2-0.3,0.3-0.8,0.3c-0.1,0-0.4,0-0.8,0c-0.1,0-0.3,0-0.6,0
				c-0.7,0-1.1,0.2-1.3,0.5c-0.1,0.2-0.1,0.5-0.1,0.9v15.4c0,4-0.8,6.9-2.3,8.7c-1.5,1.8-4,2.7-7.3,2.7c-4,0-7.6-1.1-9.2-3.4
				c-1.1-1.5-1.6-4-1.6-7.5V12.7c-0.1-0.5-0.4-0.8-1-0.9c-0.2,0-0.7,0-1.6,0c-0.5-0.1-0.7-0.2-0.7-0.4c0-0.2,0.2-0.4,0.6-0.4H90
				c0.1,0,0.5,0,1,0c0.4,0,0.8,0,1.2,0h7.2c0.1,0,0.3,0,0.5,0c0.5,0,0.7,0.2,0.7,0.5c0,0.2-0.1,0.3-0.3,0.3c-0.2,0-0.7,0.1-1.7,0.1
				c-0.4,0-0.7,0-0.8,0.1c-0.3,0.1-0.4,0.3-0.5,0.6c0,0.1,0,0.9,0,2.3v14.7c0,3.6,0.6,6.1,1.8,7.4c1.2,1.3,2.4,2,4.7,2
				c4.2,0,6.3-2.4,6.8-7.1c0.1-0.7,0.1-3.7,0.1-9v-2.3v-3.3v-2.8c0-0.3,0-0.6,0-0.9c0-0.4,0-0.5,0-0.5c0-0.6-0.3-1-0.9-1.1
				c-0.2-0.1-0.8-0.1-1.7-0.1c-0.6,0-0.8-0.2-0.8-0.5c0-0.2,0.2-0.4,0.6-0.4c0.2,0,0.4,0,0.5,0c0.3,0,1.9,0,4,0c0.3,0,0.7,0,1,0
				c0.4,0,0.6,0,0.8,0h0.6C115.6,10.9,115.9,11.1,115.9,11.3z"/>
		</g>
		<g>
			<linearGradient id="SVGID_4_" gradientUnits="userSpaceOnUse" x1="88.0535" y1="22.819" x2="277.5645" y2="31.8482">
				<stop  offset="0" style="stop-color:#616264"/>
				<stop  offset="0.5" style="stop-color:#E6E7E8"/>
				<stop  offset="1" style="stop-color:#616264"/>
			</linearGradient>
			<path style="fill:url(#SVGID_4_);" d="M152.3,11.3c0,0.3-0.3,0.4-1,0.4h-0.9h-0.7c-0.4,0-0.7,0.1-0.8,0.2
				c-0.1,0.2-0.1,0.6-0.1,1.4V37c0,1.5,0,2.3,0,2.5c0,0.2-0.1,0.4-0.2,0.4c-0.2,0-0.4-0.2-0.6-0.5l-5.2-7.7c-3-4.5-8-10.1-12.3-16.8
				V38c0,0.4,0.2,0.6,0.6,0.7c0.4,0.1,1.3,0.2,2.7,0.2c0.4,0,0.5,0.1,0.5,0.3c0,0.3-0.4,0.4-1.1,0.4c-0.2,0-1,0-2.3-0.1
				c-0.4,0-0.9,0-1.3,0c0,0-0.2,0-0.7,0.1c-0.5,0.1-1.3,0.1-2.3,0.1h-0.4c-0.6,0-0.9-0.1-0.9-0.4c0-0.2,0.3-0.4,0.8-0.4
				c1.6,0,2.5-0.1,2.8-0.3c0.3-0.2,0.4-0.8,0.4-1.8V16.4c0-2.3-0.5-3.7-1.4-4.3c-0.4-0.3-1.2-0.4-2.3-0.4c-0.7,0-1.1-0.1-1.1-0.4
				c0-0.3,0.2-0.4,0.6-0.4c0.5,0,1.2,0,2.1,0.1c0.8,0.1,1.3,0.1,1.3,0.1c0.1,0,3.3,0,4,0c0.9,0,1.8,0,2.6-0.1l12.5,19.2V13.8
				c0-0.9,0-1.4,0-1.5c0-0.2-0.1-0.3-0.3-0.4c-0.2-0.1-0.8-0.1-1.9-0.1c-1,0-1.5-0.1-1.5-0.4c0-0.3,0.3-0.4,1-0.4h1.4
				c0.4,0,0.7,0,1.1,0c0.4,0,0.7,0,0.8,0c0,0,0.3,0,0.7,0c0.4,0,0.8,0,1.2,0h1.3C152,10.9,152.3,11,152.3,11.3z"/>
		</g>
		<g>
			<linearGradient id="SVGID_5_" gradientUnits="userSpaceOnUse" x1="88.1219" y1="21.3827" x2="277.633" y2="30.412">
				<stop  offset="0" style="stop-color:#616264"/>
				<stop  offset="0.5" style="stop-color:#E6E7E8"/>
				<stop  offset="1" style="stop-color:#616264"/>
			</linearGradient>
			<path style="fill:url(#SVGID_5_);" d="M174.7,39.2c0,0.2-0.2,0.4-0.5,0.4h-0.4c-0.2-0.1-3.3-0.1-6.8-0.1c-0.7,0-1.4,0-2,0.1
				c-0.4,0-0.9,0-1.6,0c-0.4,0-0.5-0.1-0.5-0.4c0-0.2,0.4-0.3,1.1-0.4c1.1,0,1.7-0.2,1.9-0.4c0.2-0.2,0.3-1,0.3-2.4V14.3
				c0-1.3-0.1-2.1-0.2-2.3c-0.2-0.3-0.9-0.4-2.3-0.5c-0.5,0-0.8-0.1-0.8-0.3c0-0.2,0.2-0.3,0.5-0.3h6.8c0.4,0,1.2,0,2.4,0l1.6,0
				c0.4,0,0.7,0.1,0.7,0.4c0,0.2-0.6,0.3-1.8,0.4c-0.7,0-1.1,0.2-1.3,0.4c-0.2,0.2-0.2,0.8-0.2,1.7v22c0,1.6,0.1,2.4,0.2,2.6
				c0.3,0.3,1.2,0.5,2.6,0.5C174.5,38.8,174.7,39,174.7,39.2z"/>
		</g>
		<g>
			<linearGradient id="SVGID_6_" gradientUnits="userSpaceOnUse" x1="88.1954" y1="19.8418" x2="277.7064" y2="28.8711">
				<stop  offset="0" style="stop-color:#616264"/>
				<stop  offset="0.5" style="stop-color:#E6E7E8"/>
				<stop  offset="1" style="stop-color:#616264"/>
			</linearGradient>
			<path style="fill:url(#SVGID_6_);" d="M209.7,19.2c0,0.4-1.3,0.6-1.6,0.6c-0.3,0-0.5-0.3-0.6-1c-0.3-2-1-4.9-2-5.8
				c-0.6-0.6-1.6-0.9-3-1.1c-0.5-0.1-1.6-0.1-3.2-0.1c-1.2,0-1.5,0-3.3,0.1V24c3.5,0,3.8-0.2,4.6-0.7c0.8-0.5,1.3-1.8,1.5-4.1
				c0.1-0.6,0.2-0.9,0.5-0.9c0.3,0,0.4,0.2,0.4,0.6c0,0.2,0,0.5,0,0.6c-0.1,1.9-0.1,3.7-0.1,5.3c0,2.1,0,3.7,0.1,4.9
				c0,0.1,0,0.3,0,0.5c0,0.3-0.1,0.5-0.4,0.5c-0.2,0-0.4-0.1-0.4-0.2c-0.1-0.2-0.1-0.8-0.3-1.9c-0.2-1.7-0.6-2.7-1.3-3.1
				c-0.6-0.4-1.9-0.6-3.8-0.6c-1,0-0.1,0-0.8,0.1v4.2v8.1c0,0.8,0.3,1.3,0.9,1.5c0.3,0.1,0.9,0.2,2,0.1c0.4,0,0.6,0.1,0.6,0.3
				c0,0.2-0.3,0.4-0.8,0.4h-0.4c-0.4,0-0.9,0-1.5,0c-0.6,0-1,0-1.3,0H188c-0.5,0-0.8-0.1-0.8-0.3c0-0.2,0.5-0.4,1.4-0.4
				c0.9-0.1,1.5-0.2,1.6-0.4c0.2-0.2,0.2-0.8,0.2-1.9V12.8c0-0.5-0.2-0.8-0.4-0.9c-0.3-0.1-1-0.2-2.1-0.2c-0.4,0-0.7-0.1-0.7-0.4
				c0-0.2,0.2-0.4,0.7-0.4h0.6c-0.1,0,2.8,0,5.5,0c2.7,0,4.8,0,6.5,0c4.6,0,7.4-0.1,8.4-0.2c0,0.4,0.1,1.4,0.2,3.1
				c0.1,1.2,0.2,3.6,0.3,4.5C209.7,18.6,209.7,19,209.7,19.2z"/>
		</g>
		<g>
			<linearGradient id="SVGID_7_" gradientUnits="userSpaceOnUse" x1="88.2497" y1="18.7007" x2="277.7607" y2="27.73">
				<stop  offset="0" style="stop-color:#616264"/>
				<stop  offset="0.5" style="stop-color:#E6E7E8"/>
				<stop  offset="1" style="stop-color:#616264"/>
			</linearGradient>
			<path style="fill:url(#SVGID_7_);" d="M241.5,39.3c0,0.2-0.2,0.4-0.6,0.4c-0.3,0-0.5,0-0.7,0l-6.1-0.2l-5.1,0.2
				c-0.2,0-0.4,0-0.6,0c-0.5,0-0.8-0.1-0.8-0.4c0-0.3,0.4-0.5,1.1-0.5c2.4,0,3.6-0.3,3.6-0.7c0,0,0-0.1-0.1-0.3l-0.3-1.1l-0.2-0.6
				c-0.2-0.9-0.8-2.7-1.8-5.6h-8.7c-1.6,4.4-2.4,6.9-2.4,7.6c0,0.4,0.2,0.6,0.5,0.7c0.1,0,0.8,0.1,2,0.2c0.8,0,1.2,0.2,1.2,0.4
				c0,0.3-0.4,0.4-1.1,0.4c-1.2,0-2.7-0.1-4.3-0.2c-0.4,0-0.8,0-1.3,0c-0.4,0-0.9,0-1.3,0.1c-0.2,0-0.4,0.1-0.5,0.1
				c-0.4,0-0.6-0.1-0.6-0.4c0-0.2,0.4-0.4,1.3-0.4c0.9,0,1.5-0.2,1.8-0.4c0.4-0.2,0.7-0.7,0.9-1.3c3.5-10.1,6.3-18.3,8.5-24.4
				c0.1-0.3,0.2-0.7,0.4-1.1l0.2-0.8c0.1-0.3,0.2-0.5,0.3-0.5c0.1,0,1.1,0.1,1.2,0.2c0.4,1.1,1.1,3.3,2.4,6.7
				c1,2.7,3.4,9.4,7.3,20.1c0.2,0.6,0.5,1,0.8,1.2c0.3,0.2,1,0.3,2.1,0.3C241.2,38.9,241.5,39,241.5,39.3z M229.6,29.4
				c-0.4-1.2-1.2-3.3-2.2-6.1l-1.9-5.7c-1.1,3-2.5,7-4.1,11.8H229.6z"/>
		</g>
		<g>
			<linearGradient id="SVGID_8_" gradientUnits="userSpaceOnUse" x1="88.333" y1="16.9532" x2="277.844" y2="25.9825">
				<stop  offset="0" style="stop-color:#616264"/>
				<stop  offset="0.5" style="stop-color:#E6E7E8"/>
				<stop  offset="1" style="stop-color:#616264"/>
			</linearGradient>
			<path style="fill:url(#SVGID_8_);" d="M278.8,39.3c0,0.2-0.3,0.4-0.9,0.4h-0.4c-0.4,0-1.1,0-2.1,0c-1,0-3,0-3.5,0
				c-0.8,0-1.8,0-2.8,0c-1.1,0-1.8,0-2.2,0h-0.3c-0.6,0-0.9-0.1-0.9-0.4c0-0.3,0.4-0.4,1.2-0.4c1.4,0,2.2-0.2,2.5-0.5
				c0.1-0.1,0.2-1.1,0.2-2.8V14.2c0,0-0.1,0.5-0.4,1.4c-1.1,3.3-3.3,8.3-5.4,15l-1.9,6.6c-0.4,1.3-0.6,1.9-0.8,1.9
				c-0.2,0-0.4-0.3-0.6-1c-0.8-2.5-3-8.7-6.6-18.7l-1.6-4.4c0,0.5,0,1.2,0,2.1v13.4c0,5,0,7.6,0.1,7.6c0.2,0.4,0.8,0.5,1.9,0.5
				c0.9,0,1.3,0.1,1.3,0.4c0,0.3-0.3,0.5-0.9,0.5c-0.4,0-0.7,0-1-0.1c-0.4-0.1-0.7-0.1-1-0.1l-4.7,0.2c-0.5,0-0.7-0.1-0.7-0.4
				c0-0.3,0.8-0.4,2.3-0.5c0.6,0,1-0.1,1.1-0.3s0.2-0.9,0.2-2.1V16.6c0-2.3,0-3.5-0.1-3.7c-0.1-0.4-0.3-0.6-0.7-0.8
				c-0.4-0.1-1.1-0.2-2.3-0.3c-0.4,0-0.6-0.2-0.6-0.4c0-0.3,0.4-0.5,1.2-0.5c0.1,0,0.3,0,0.7,0h2.1c1.6,0,4.5,0,5.2,0
				c0.1,0.4,0.9,2.5,2.4,6.5c0.6,1.6,1.3,4.1,4.1,12c0.5-1.8,0.3-1.2,0.8-2.9l5-13.6c0.2-0.8,0.5-1.4,0.7-1.9l7.3,0
				c0.9,0,1.4,0,1.5,0.1c0.1,0.1,0.2,0.2,0.2,0.4c0,0.3-0.2,0.4-0.7,0.4c-0.8,0-1.3,0-1.5,0.1c-0.6,0.1-1.1,0.3-1.3,0.7
				c-0.1,0.2-0.2,1.8-0.2,4.8v19.2c0,1.1,0.1,1.7,0.3,1.9c0.4,0.2,1.2,0.4,2.6,0.4h0.2C278.5,38.9,278.8,39,278.8,39.3z"/>
		</g>
	</g>
</g>
<g>
	<linearGradient id="SVGID_9_" gradientUnits="userSpaceOnUse" x1="88.3676" y1="54.7713" x2="277.738" y2="54.7713">
		<stop  offset="0" style="stop-color:#906026"/>
		<stop  offset="0.5" style="stop-color:#FAF4A2"/>
		<stop  offset="1" style="stop-color:#906026"/>
	</linearGradient>
	<path style="fill:url(#SVGID_9_);" d="M97.5,52.4c0,0.1,0,0.1-0.1,0.1c-0.1,0-0.2-0.2-0.3-0.6c-0.2-0.7-0.4-1.2-0.7-1.5
		c-0.3-0.3-0.8-0.4-1.5-0.4c-0.3,0-0.5,0-0.7,0v8.8c0,0.2,0.1,0.4,0.2,0.5c0.1,0.1,0.5,0.1,1.1,0.2c0.1,0,0.2,0.1,0.2,0.1
		c0,0.1-0.1,0.1-0.2,0.1c0,0-0.1,0-0.2,0c-0.1,0-0.3,0-0.4,0l-1.5,0l-2.5,0.1c-0.1,0-0.2,0-0.2-0.1c0-0.1,0-0.1,0.1-0.1
		c0,0,0.2,0,0.5,0c0.5,0,0.8-0.1,0.9-0.4c0-0.1,0-1.1,0-2.9v-6.1c-0.1,0-0.2,0-0.4,0c-0.8,0-1.4,0.1-1.7,0.4
		c-0.4,0.3-0.6,0.8-0.7,1.5c-0.1,0.4-0.2,0.6-0.3,0.6c-0.1,0-0.1-0.1-0.1-0.2c0-0.1,0-0.3,0.1-0.8c0.1-0.9,0.1-1.6,0.1-1.9h0.2h1.1
		c0,0,0.4,0,1,0c0.7,0,1.5,0,2.5,0c0.6,0,1.1,0,1.5,0c0.4,0,0.9,0,1.2,0c0.3,0,0.6,0,0.7,0c0,0.6,0.1,1.4,0.2,2.4
		C97.5,52.3,97.5,52.4,97.5,52.4z"/>
	<linearGradient id="SVGID_10_" gradientUnits="userSpaceOnUse" x1="88.3676" y1="54.8" x2="277.738" y2="54.8">
		<stop  offset="0" style="stop-color:#906026"/>
		<stop  offset="0.5" style="stop-color:#FAF4A2"/>
		<stop  offset="1" style="stop-color:#906026"/>
	</linearGradient>
	<path style="fill:url(#SVGID_10_);" d="M110.6,59.8c0,0.1,0,0.1-0.1,0.1c-0.1,0-0.1,0-0.2,0c-0.3,0-1.3-0.1-2.9-0.1
		c-0.1,0-0.4,0-0.7,0h-0.5c-0.3,0-0.5,0-0.5-0.1c0-0.1,0.1-0.1,0.4-0.1c0.2,0,0.4-0.1,0.6-0.1c0.2-0.1,0.2-0.2,0.2-0.3
		c0-0.1,0-0.2,0-0.5v-0.7v-3.3h-3c-0.2,0-0.3,0-0.5,0v4.5c0,0.3,0.2,0.4,0.6,0.4c0.3,0,0.5,0.1,0.5,0.1c0,0,0.1,0,0.1,0.1
		c0,0.1,0,0.1-0.1,0.1c-0.1,0-0.5,0-1,0c-0.6,0-0.8,0-0.7,0c-0.1,0-0.4,0-0.9,0c-0.6,0-1.1,0-1.6,0h-0.1c-0.2,0-0.3,0-0.3-0.1
		c0-0.1,0.1-0.1,0.2-0.1c0.5,0,0.8-0.1,1-0.2c0.1,0,0.1-0.3,0.1-0.8v-8c0-0.3-0.1-0.5-0.3-0.6S100.4,50,100,50c-0.1,0-0.2,0-0.2-0.1
		c0,0,0.1-0.1,0.2-0.1c0,0,0.3,0,1.1,0h1.9c0.4,0,0.8,0,1.1,0c0.2,0,0.3,0,0.3,0c0.1,0,0.2,0,0.2,0.1c0,0.1,0,0.1-0.1,0.1
		c-0.1,0-0.2,0-0.5,0c-0.3,0-0.5,0.1-0.5,0.2s-0.1,0.3-0.1,0.6v3.4l0.4,0c1,0,2.1,0,3.2,0V51c0-0.7-0.2-1-0.7-1
		c-0.3,0-0.5,0-0.5-0.1c0-0.1,0.1-0.1,0.2-0.1h0.1c0.2,0,0.4,0,0.8,0c0.4,0,0.8,0,1.3,0h1.1h1.1c0.1,0,0.1,0,0.1,0.1
		c0,0.1-0.2,0.1-0.6,0.1c-0.4,0-0.6,0.1-0.7,0.2c-0.1,0.1-0.1,0.4-0.1,0.9v7.1c0,0.6,0.1,1,0.2,1.1c0.2,0.1,0.4,0.2,0.8,0.2
		C110.5,59.6,110.6,59.6,110.6,59.8z"/>
	<linearGradient id="SVGID_11_" gradientUnits="userSpaceOnUse" x1="88.3676" y1="54.757" x2="277.738" y2="54.757">
		<stop  offset="0" style="stop-color:#906026"/>
		<stop  offset="0.5" style="stop-color:#FAF4A2"/>
		<stop  offset="1" style="stop-color:#906026"/>
	</linearGradient>
	<path style="fill:url(#SVGID_11_);" d="M121.5,57.2c0,0,0,0.5,0,1.3c0,0.5,0,0.8,0,1s0,0.3,0,0.3c-2.6-0.1-4.9-0.1-6.9-0.1h-1.3
		c-0.2,0-0.3,0-0.3-0.1c0-0.1,0-0.1,0.1-0.1c0,0,0.2,0,0.5,0c0.5,0,0.7-0.2,0.8-0.4c0-0.1,0-0.3,0-0.4v-7.3c0-0.6,0-0.9,0-1
		c0-0.2-0.1-0.3-0.1-0.3c-0.1-0.1-0.3-0.1-0.6-0.1c-0.3,0-0.5,0-0.5-0.1c0-0.1,0.1-0.1,0.4-0.1c0.3,0,0.7,0,1.1,0c1.8,0,3.3,0,4.5,0
		h1c0.2,0,0.5,0,0.8,0l0.1,1.6c0,0.5,0.1,0.8,0.1,0.9c0,0.1,0,0.1-0.1,0.1c-0.1,0-0.2-0.1-0.2-0.4c-0.1-0.7-0.4-1.1-0.8-1.5
		c-0.5-0.3-1.2-0.5-2.1-0.5c-0.3,0-0.8,0-1.4,0v4.3c1.1,0,1.8-0.1,2.1-0.2c0.3-0.2,0.5-0.6,0.6-1.2c0.1-0.4,0.1-0.5,0.2-0.5
		c0.1,0,0.1,0.1,0.1,0.3c0,0.2,0,0.5,0,1.1c0,0.2,0,0.4,0,0.7c0,0.8,0,1.5,0,1.9c0,0.1,0,0.1,0,0.2c0,0.1,0,0.2-0.1,0.2
		c-0.1,0-0.1,0-0.1-0.1c0,0,0-0.2-0.1-0.5c-0.1-0.7-0.2-1.1-0.4-1.3c-0.2-0.2-0.6-0.3-1.2-0.3h-1v4.9h1c1.1,0,1.8,0,2-0.1
		c0.3,0,0.6-0.1,0.9-0.3c0.2-0.2,0.4-0.4,0.5-0.6c0.1-0.2,0.2-0.6,0.3-1.2c0-0.1,0.1-0.2,0.1-0.2C121.5,57,121.5,57.1,121.5,57.2z"
		/>
	<linearGradient id="SVGID_12_" gradientUnits="userSpaceOnUse" x1="88.3676" y1="54.764" x2="277.738" y2="54.764">
		<stop  offset="0" style="stop-color:#906026"/>
		<stop  offset="0.5" style="stop-color:#FAF4A2"/>
		<stop  offset="1" style="stop-color:#906026"/>
	</linearGradient>
	<path style="fill:url(#SVGID_12_);" d="M137,52.1c0,0.8-0.3,1.5-1,2c-0.6,0.5-1.5,0.8-2.5,0.8c-0.3,0-0.6,0-1.1-0.1v3.7
		c0,0.5,0,0.8,0.1,0.9c0.1,0.1,0.4,0.1,0.8,0.2c0.3,0,0.4,0,0.4,0.1c0,0.1-0.1,0.1-0.2,0.1h-0.2c-0.1,0-0.3,0-0.7,0
		c-0.4,0-0.8,0-1.3,0h-1.7c-0.3,0-0.5,0-0.6,0c-0.1,0-0.1,0-0.1-0.1c0-0.1,0.1-0.1,0.2-0.1c0.5,0,0.8-0.1,0.9-0.1
		c0.1-0.1,0.1-0.3,0.1-0.7v-7.5c0-0.6,0-1-0.1-1.1c-0.1-0.1-0.3-0.2-0.8-0.2c-0.3,0-0.4,0-0.4-0.1c0-0.1,0.1-0.1,0.4-0.1l4.3,0
		c1,0,1.8,0.2,2.3,0.5C136.7,50.7,137,51.3,137,52.1z M134.6,52.1c0-1.4-0.5-2.1-1.4-2.1c-0.6,0-0.8,0.2-0.8,0.7v3.8
		c0.4,0,0.7,0,0.8,0c0.3,0,0.5-0.2,0.7-0.3C134.4,53.8,134.6,53.1,134.6,52.1z"/>
	<linearGradient id="SVGID_13_" gradientUnits="userSpaceOnUse" x1="88.3676" y1="54.764" x2="277.738" y2="54.764">
		<stop  offset="0" style="stop-color:#906026"/>
		<stop  offset="0.5" style="stop-color:#FAF4A2"/>
		<stop  offset="1" style="stop-color:#906026"/>
	</linearGradient>
	<path style="fill:url(#SVGID_13_);" d="M149.7,54.8c0,1.4-0.5,2.7-1.4,3.7c-0.9,1-2.1,1.5-3.4,1.5c-1.3,0-2.5-0.5-3.4-1.5
		c-0.9-1-1.4-2.2-1.4-3.7c0-1.5,0.5-2.7,1.4-3.7c0.9-1,2.1-1.5,3.5-1.5c1.3,0,2.5,0.5,3.4,1.5C149.2,52.1,149.7,53.3,149.7,54.8z
		 M147.1,55c0-1.9-0.2-3.3-0.7-4.2c-0.3-0.6-0.8-0.9-1.5-0.9c-0.7,0-1.2,0.4-1.6,1.3c-0.4,0.8-0.6,2-0.6,3.4c0,2,0.4,3.6,1.1,4.6
		c0.3,0.4,0.7,0.6,1.3,0.6c0.7,0,1.1-0.3,1.4-0.9C146.8,57.8,147.1,56.6,147.1,55z"/>
	<linearGradient id="SVGID_14_" gradientUnits="userSpaceOnUse" x1="88.3676" y1="54.8213" x2="277.738" y2="54.8213">
		<stop  offset="0" style="stop-color:#906026"/>
		<stop  offset="0.5" style="stop-color:#FAF4A2"/>
		<stop  offset="1" style="stop-color:#906026"/>
	</linearGradient>
	<path style="fill:url(#SVGID_14_);" d="M166.5,49.9c0,0.1-0.1,0.1-0.2,0.1c-0.4,0-0.7,0.1-0.9,0.2c-0.1,0.1-0.3,0.3-0.4,0.7
		c-0.1,0.2-0.2,0.6-0.4,1c-0.1,0.4-0.3,1-0.6,1.7c-0.1,0.4-0.4,0.9-0.6,1.7l-0.7,2c-0.5,1.4-0.8,2.2-0.9,2.4c0,0.1-0.1,0.2-0.1,0.2
		c-0.1,0-0.1,0-0.1-0.1c0-0.1-0.2-0.4-0.3-1c-0.2-0.8-0.6-1.7-1.1-2.8l-0.5-1.2c-1,2.1-1.7,3.7-2.1,4.9c-0.1,0.1-0.1,0.2-0.2,0.2
		c0,0-0.2-0.3-0.4-0.8l-1.8-4.6c-0.4-1.2-1-2.5-1.7-4.1c-0.1-0.2-0.2-0.3-0.3-0.3c-0.1,0-0.3,0-0.5,0s-0.4,0-0.4-0.1
		c0-0.1,0.1-0.1,0.2-0.1c0,0,0.2,0,0.5,0c0.3,0,0.6,0,0.9,0h0.6h1.5c0,0,0.1,0,0.3,0c0.1,0,0.2,0,0.2,0c0.1,0,0.2,0,0.2,0.1
		c0,0.1-0.2,0.1-0.5,0.1c-0.2,0-0.3,0-0.3,0.1c0,0,0,0.1,0,0.1c0.2,0.6,0.6,1.5,1,2.6l1.5,3.8l1-2.3c-0.1-0.4-0.4-1.2-0.8-2.3
		c-0.1-0.2-0.2-0.4-0.3-0.8c0-0.1-0.1-0.2-0.2-0.4c-0.2-0.4-0.3-0.7-0.4-0.8c-0.1-0.1-0.3-0.1-0.7-0.1c-0.1,0-0.2-0.1-0.2-0.1
		c0-0.1,0.1-0.1,0.3-0.1c0,0,0,0,0.2,0s0.4,0,0.7,0h5.2c0.2,0,0.3,0,0.3,0.1c0,0.1-0.1,0.1-0.2,0.1c-0.7,0-1.1,0.1-1.2,0.3
		c-0.2,0.3-0.5,1-1.1,2.2c0.3,0.9,0.9,2.2,1.7,4.1c0.2-0.4,0.3-0.8,0.5-1.3c0.2-0.4,0.4-1.1,0.8-2.1c0.2-0.6,0.4-1.2,0.6-1.6
		c0.3-0.7,0.4-1.1,0.4-1.3c0-0.2-0.1-0.3-0.3-0.4c-0.1,0-0.2,0-0.5,0c-0.2,0-0.2,0-0.2-0.1s0.1-0.1,0.2-0.1h1.2c0.5,0,0.9,0,1.1,0
		h0.1C166.4,49.8,166.5,49.8,166.5,49.9z M161.4,50.4c0-0.3-0.2-0.4-0.7-0.4c-0.5,0-0.7,0.1-0.7,0.3c0,0.2,0.2,0.9,0.7,1.8
		C161.1,51.1,161.4,50.6,161.4,50.4z"/>
	<linearGradient id="SVGID_15_" gradientUnits="userSpaceOnUse" x1="88.3676" y1="54.757" x2="277.738" y2="54.757">
		<stop  offset="0" style="stop-color:#906026"/>
		<stop  offset="0.5" style="stop-color:#FAF4A2"/>
		<stop  offset="1" style="stop-color:#906026"/>
	</linearGradient>
	<path style="fill:url(#SVGID_15_);" d="M176.8,57.2c0,0,0,0.5,0,1.3c0,0.5,0,0.8,0,1s0,0.3,0,0.3c-2.6-0.1-4.9-0.1-6.9-0.1h-1.3
		c-0.2,0-0.3,0-0.3-0.1c0-0.1,0-0.1,0.1-0.1c0,0,0.2,0,0.5,0c0.5,0,0.7-0.2,0.8-0.4c0-0.1,0-0.3,0-0.4v-7.3c0-0.6,0-0.9,0-1
		c0-0.2-0.1-0.3-0.1-0.3c-0.1-0.1-0.3-0.1-0.6-0.1c-0.3,0-0.5,0-0.5-0.1c0-0.1,0.1-0.1,0.4-0.1c0.3,0,0.7,0,1.1,0c1.8,0,3.3,0,4.5,0
		h1c0.2,0,0.5,0,0.8,0l0.1,1.6c0,0.5,0.1,0.8,0.1,0.9c0,0.1,0,0.1-0.1,0.1c-0.1,0-0.2-0.1-0.2-0.4c-0.1-0.7-0.4-1.1-0.8-1.5
		c-0.5-0.3-1.2-0.5-2.1-0.5c-0.3,0-0.8,0-1.4,0v4.3c1.1,0,1.8-0.1,2.1-0.2c0.3-0.2,0.5-0.6,0.6-1.2c0.1-0.4,0.1-0.5,0.2-0.5
		c0.1,0,0.1,0.1,0.1,0.3c0,0.2,0,0.5,0,1.1c0,0.2,0,0.4,0,0.7c0,0.8,0,1.5,0,1.9c0,0.1,0,0.1,0,0.2c0,0.1,0,0.2-0.1,0.2
		c-0.1,0-0.1,0-0.1-0.1c0,0,0-0.2-0.1-0.5c-0.1-0.7-0.2-1.1-0.4-1.3c-0.2-0.2-0.6-0.3-1.2-0.3h-1v4.9h1c1.1,0,1.8,0,2-0.1
		c0.3,0,0.6-0.1,0.9-0.3c0.2-0.2,0.4-0.4,0.5-0.6c0.1-0.2,0.2-0.6,0.3-1.2c0-0.1,0.1-0.2,0.1-0.2C176.8,57,176.8,57.1,176.8,57.2z"
		/>
	<linearGradient id="SVGID_16_" gradientUnits="userSpaceOnUse" x1="88.3676" y1="54.8721" x2="277.738" y2="54.8721">
		<stop  offset="0" style="stop-color:#906026"/>
		<stop  offset="0.5" style="stop-color:#FAF4A2"/>
		<stop  offset="1" style="stop-color:#906026"/>
	</linearGradient>
	<path style="fill:url(#SVGID_16_);" d="M189.2,59.2c0,0.5-0.4,0.8-1.1,0.8c-0.9,0-1.6-0.3-2.2-0.8c-0.4-0.4-0.7-0.9-0.7-1.4
		l-0.1-1.2c-0.1-0.8-0.3-1.3-0.5-1.6c-0.3-0.3-0.7-0.4-1.3-0.4v3.3c0,0.8,0,1.2,0,1.2c0,0.2,0.1,0.3,0.2,0.3
		c0.1,0.1,0.4,0.1,0.8,0.1c0.2,0,0.4,0,0.4,0.1c0,0.1-0.1,0.1-0.2,0.1h-1.4h-0.2c-0.2,0-0.3,0-0.5,0h-1.1c-0.1,0-0.2,0-0.3,0
		c-0.1,0-0.2,0-0.2,0h-0.7c-0.1,0-0.2,0-0.2-0.1c0-0.1,0.2-0.1,0.6-0.1c0.3,0,0.5-0.1,0.6-0.2c0-0.1,0-0.3,0-0.6v-7.5
		c0-0.5,0-0.8,0-0.9c0-0.1-0.1-0.2-0.2-0.2c-0.1-0.1-0.4-0.1-0.7-0.1c-0.2,0-0.3,0-0.3-0.1c0-0.1,0-0.1,0.1-0.1c0.1,0,0.3,0,0.7,0
		h0.3c0.2,0,0.4,0,0.5,0h0.5c0,0,0.1,0,0.3,0c0.2,0,0.4,0,0.5,0h0.9c1.4,0,2.3,0.1,2.9,0.3c0.4,0.2,0.7,0.4,1,0.8
		c0.2,0.3,0.4,0.7,0.4,1.1c0,0.9-0.5,1.6-1.5,2.1c-0.4,0.2-1.1,0.3-1.9,0.4l0,0.1c1.1,0.1,1.9,0.3,2.4,0.8c0.5,0.5,0.8,1.3,0.9,2.4
		c0.1,0.9,0.2,1.4,0.4,1.6c0.2,0.2,0.3,0.3,0.5,0.3c0.1,0,0.2,0,0.2-0.1c0,0-0.1-0.1-0.2-0.2c-0.1-0.1-0.2-0.2-0.2-0.3
		c0-0.3,0.1-0.4,0.4-0.4C189,58.7,189.2,58.9,189.2,59.2z M185.4,51.9c0-1.2-0.5-1.9-1.5-1.9c-0.3,0-0.5,0.1-0.6,0.3
		c0,0.1-0.1,0.7-0.1,1.6v2.4c0.8,0,1.3-0.2,1.7-0.6C185.2,53.4,185.4,52.7,185.4,51.9z"/>
	<linearGradient id="SVGID_17_" gradientUnits="userSpaceOnUse" x1="88.3676" y1="54.764" x2="277.738" y2="54.764">
		<stop  offset="0" style="stop-color:#906026"/>
		<stop  offset="0.5" style="stop-color:#FAF4A2"/>
		<stop  offset="1" style="stop-color:#906026"/>
	</linearGradient>
	<path style="fill:url(#SVGID_17_);" d="M206.1,54.8c0,1.4-0.5,2.7-1.4,3.7c-0.9,1-2.1,1.5-3.4,1.5c-1.3,0-2.5-0.5-3.4-1.5
		c-0.9-1-1.4-2.2-1.4-3.7c0-1.5,0.5-2.7,1.4-3.7c0.9-1,2.1-1.5,3.5-1.5c1.3,0,2.5,0.5,3.4,1.5C205.7,52.1,206.1,53.3,206.1,54.8z
		 M203.5,55c0-1.9-0.2-3.3-0.7-4.2c-0.3-0.6-0.8-0.9-1.5-0.9c-0.7,0-1.2,0.4-1.6,1.3c-0.4,0.8-0.6,2-0.6,3.4c0,2,0.4,3.6,1.1,4.6
		c0.3,0.4,0.7,0.6,1.3,0.6c0.7,0,1.1-0.3,1.4-0.9C203.3,57.8,203.5,56.6,203.5,55z"/>
	<linearGradient id="SVGID_18_" gradientUnits="userSpaceOnUse" x1="88.3676" y1="54.7316" x2="277.738" y2="54.7316">
		<stop  offset="0" style="stop-color:#906026"/>
		<stop  offset="0.5" style="stop-color:#FAF4A2"/>
		<stop  offset="1" style="stop-color:#906026"/>
	</linearGradient>
	<path style="fill:url(#SVGID_18_);" d="M217.3,52.2c0,0.1,0,0.1-0.1,0.1c-0.1,0-0.1,0-0.1-0.1c0,0-0.1-0.2-0.1-0.5
		c-0.2-0.8-0.6-1.3-1.2-1.5c-0.3-0.2-0.9-0.2-1.8-0.2c-0.4,0-0.9,0-1.4,0v4.4h0.4c0.9,0,1.5-0.1,1.8-0.3c0.2-0.2,0.4-0.7,0.5-1.6
		c0-0.1,0.1-0.2,0.1-0.2c0.1,0,0.1,0.1,0.1,0.2c0,0,0,0,0,0.2c0,0.2,0,0.5,0,0.9v0.9c0,0.7,0,1.1,0,1.3c0,0.2,0,0.4,0,0.6
		c0,0.2,0,0.2-0.1,0.2c-0.1,0-0.2-0.2-0.2-0.5c0-0.7-0.2-1.2-0.5-1.4c-0.1-0.1-0.4-0.2-0.8-0.2c-0.5,0-0.9,0-1.3,0v3.5
		c0,0.6,0,1,0.1,1.1c0.1,0.1,0.4,0.2,1,0.2c0.2,0,0.3,0,0.3,0.1c0,0.1-0.1,0.1-0.3,0.1c-0.2,0-0.5,0-0.8,0c-0.6,0-1.3,0-2.1,0
		c-0.5,0-1,0-1.4,0c-0.1,0-0.1,0-0.2,0c-0.1,0-0.2,0-0.2-0.1c0-0.1,0.2-0.1,0.5-0.1c0.5,0,0.7-0.1,0.8-0.3c0-0.1,0.1-0.2,0.1-0.4
		v-8.4c0-0.1-0.1-0.2-0.2-0.3c-0.1,0-0.3-0.1-0.6-0.1c-0.3,0-0.4-0.1-0.4-0.1c0-0.1,0.1-0.1,0.3-0.1h0.3c0,0,0.4,0,1.1,0
		c0.8,0,1.5,0,2.1,0c0.9,0,1.7,0,2.3,0l1,0c0.2,0,0.4,0,0.7,0c0.1,1.1,0.2,1.9,0.2,2.4C217.3,52.1,217.3,52.2,217.3,52.2z"/>
	<linearGradient id="SVGID_19_" gradientUnits="userSpaceOnUse" x1="88.3676" y1="54.7713" x2="277.738" y2="54.7713">
		<stop  offset="0" style="stop-color:#906026"/>
		<stop  offset="0.5" style="stop-color:#FAF4A2"/>
		<stop  offset="1" style="stop-color:#906026"/>
	</linearGradient>
	<path style="fill:url(#SVGID_19_);" d="M233.1,52.4c0,0.1,0,0.1-0.1,0.1c-0.1,0-0.2-0.2-0.3-0.6c-0.2-0.7-0.4-1.2-0.7-1.5
		c-0.3-0.3-0.8-0.4-1.5-0.4c-0.3,0-0.5,0-0.7,0v8.8c0,0.2,0.1,0.4,0.2,0.5c0.1,0.1,0.5,0.1,1.1,0.2c0.1,0,0.2,0.1,0.2,0.1
		c0,0.1-0.1,0.1-0.2,0.1c0,0-0.1,0-0.2,0c-0.1,0-0.3,0-0.4,0l-1.5,0l-2.5,0.1c-0.1,0-0.2,0-0.2-0.1c0-0.1,0-0.1,0.1-0.1
		c0,0,0.2,0,0.5,0c0.5,0,0.8-0.1,0.9-0.4c0-0.1,0-1.1,0-2.9v-6.1c-0.1,0-0.2,0-0.4,0c-0.8,0-1.4,0.1-1.7,0.4
		c-0.4,0.3-0.6,0.8-0.7,1.5c-0.1,0.4-0.2,0.6-0.3,0.6c-0.1,0-0.1-0.1-0.1-0.2c0-0.1,0-0.3,0.1-0.8c0.1-0.9,0.1-1.6,0.1-1.9h0.2h1.1
		c0,0,0.4,0,1,0c0.7,0,1.5,0,2.5,0c0.6,0,1.1,0,1.5,0c0.4,0,0.9,0,1.2,0c0.3,0,0.6,0,0.7,0c0,0.6,0.1,1.4,0.2,2.4
		C233.1,52.3,233.1,52.4,233.1,52.4z"/>
	<linearGradient id="SVGID_20_" gradientUnits="userSpaceOnUse" x1="88.3676" y1="54.8721" x2="277.738" y2="54.8721">
		<stop  offset="0" style="stop-color:#906026"/>
		<stop  offset="0.5" style="stop-color:#FAF4A2"/>
		<stop  offset="1" style="stop-color:#906026"/>
	</linearGradient>
	<path style="fill:url(#SVGID_20_);" d="M245,59.2c0,0.5-0.4,0.8-1.1,0.8c-0.9,0-1.6-0.3-2.2-0.8c-0.4-0.4-0.7-0.9-0.7-1.4l-0.1-1.2
		c-0.1-0.8-0.3-1.3-0.5-1.6c-0.3-0.3-0.7-0.4-1.3-0.4v3.3c0,0.8,0,1.2,0,1.2c0,0.2,0.1,0.3,0.2,0.3c0.1,0.1,0.4,0.1,0.8,0.1
		c0.2,0,0.4,0,0.4,0.1c0,0.1-0.1,0.1-0.2,0.1h-1.4h-0.2c-0.2,0-0.3,0-0.5,0H237c-0.1,0-0.2,0-0.3,0c-0.1,0-0.2,0-0.2,0h-0.7
		c-0.1,0-0.2,0-0.2-0.1c0-0.1,0.2-0.1,0.6-0.1c0.3,0,0.5-0.1,0.6-0.2c0-0.1,0-0.3,0-0.6v-7.5c0-0.5,0-0.8,0-0.9
		c0-0.1-0.1-0.2-0.2-0.2c-0.1-0.1-0.4-0.1-0.7-0.1c-0.2,0-0.3,0-0.3-0.1c0-0.1,0-0.1,0.1-0.1c0.1,0,0.3,0,0.7,0h0.3
		c0.2,0,0.4,0,0.5,0h0.5c0,0,0.1,0,0.3,0c0.2,0,0.4,0,0.5,0h0.9c1.4,0,2.3,0.1,2.9,0.3c0.4,0.2,0.7,0.4,1,0.8
		c0.2,0.3,0.4,0.7,0.4,1.1c0,0.9-0.5,1.6-1.5,2.1c-0.4,0.2-1.1,0.3-1.9,0.4l0,0.1c1.1,0.1,1.9,0.3,2.4,0.8c0.5,0.5,0.8,1.3,0.9,2.4
		c0.1,0.9,0.2,1.4,0.4,1.6c0.2,0.2,0.3,0.3,0.5,0.3c0.1,0,0.2,0,0.2-0.1c0,0-0.1-0.1-0.2-0.2s-0.2-0.2-0.2-0.3
		c0-0.3,0.1-0.4,0.4-0.4C244.9,58.7,245,58.9,245,59.2z M241.2,51.9c0-1.2-0.5-1.9-1.5-1.9c-0.3,0-0.5,0.1-0.6,0.3
		c-0.1,0.1-0.1,0.7-0.1,1.6v2.4c0.8,0,1.3-0.2,1.7-0.6C241.1,53.4,241.2,52.7,241.2,51.9z"/>
	<linearGradient id="SVGID_21_" gradientUnits="userSpaceOnUse" x1="88.3676" y1="54.8648" x2="277.738" y2="54.8648">
		<stop  offset="0" style="stop-color:#906026"/>
		<stop  offset="0.5" style="stop-color:#FAF4A2"/>
		<stop  offset="1" style="stop-color:#906026"/>
	</linearGradient>
	<path style="fill:url(#SVGID_21_);" d="M256.7,49.9c0,0.1-0.2,0.1-0.5,0.1c-0.4,0-0.7,0.1-0.8,0.2c0,0,0,0.1-0.1,0.2v6.1
		c0,2.3-1.1,3.4-3.4,3.4c-1.2,0-2.1-0.3-2.7-1c-0.5-0.5-0.7-1.4-0.7-2.7v-5.6c0-0.3,0-0.5-0.1-0.6c-0.1-0.1-0.4-0.1-0.9-0.2
		c-0.1,0-0.2,0-0.2-0.1c0-0.1,0.1-0.1,0.3-0.1h0.1c0.1,0,0.2,0,0.2,0h0.9c0.9,0,1.5,0,1.9,0c0.6,0,0.8,0,0.7,0h0.3
		c0.2,0,0.3,0,0.3,0.1c0,0.1-0.2,0.1-0.5,0.1c-0.4,0-0.7,0.1-0.7,0.2c0,0.1,0,0.2,0,0.3V56c0,0.8,0,1.3,0,1.5
		c0.1,0.6,0.3,1.1,0.6,1.4c0.4,0.3,0.9,0.5,1.4,0.5c0.7,0,1.2-0.2,1.5-0.6c0.4-0.5,0.6-1.4,0.6-2.7v-4.8c0-0.1,0-0.2,0-0.3
		c0-0.1,0-0.2,0-0.2c0-0.3-0.1-0.4-0.2-0.5c-0.1-0.1-0.3-0.1-0.6-0.1c-0.4,0-0.5-0.1-0.5-0.2c0-0.1,0.1-0.1,0.2-0.1
		c0.1,0,0.4,0,0.7,0c0.3,0,0.5,0,0.7,0c0,0,0.1,0,0.3,0c0.2,0,0.3,0,0.5,0h0.4C256.5,49.7,256.7,49.8,256.7,49.9z"/>
	<linearGradient id="SVGID_22_" gradientUnits="userSpaceOnUse" x1="88.3676" y1="54.764" x2="277.738" y2="54.764">
		<stop  offset="0" style="stop-color:#906026"/>
		<stop  offset="0.5" style="stop-color:#FAF4A2"/>
		<stop  offset="1" style="stop-color:#906026"/>
	</linearGradient>
	<path style="fill:url(#SVGID_22_);" d="M266,56.9c0,0.9-0.3,1.6-1,2.2c-0.6,0.6-1.5,0.9-2.5,0.9c-0.6,0-1.4-0.2-2.5-0.6
		c-0.1,0-0.1,0-0.2,0c-0.2,0-0.3,0.2-0.4,0.5c0,0.1-0.1,0.2-0.1,0.2c-0.1,0-0.1-0.1-0.1-0.2c0-0.1,0-0.3,0.1-0.7
		c0-0.3,0.1-0.6,0.1-0.9c0-0.3,0-0.5,0-0.7c0-0.3,0-0.5,0-0.6c0-0.2,0-0.2,0.1-0.2c0.1,0,0.2,0.2,0.3,0.6c0.1,0.7,0.5,1.3,0.9,1.7
		c0.5,0.4,1.1,0.6,1.7,0.6c0.5,0,1-0.2,1.4-0.5c0.4-0.3,0.6-0.7,0.6-1.2c0-0.4-0.1-0.7-0.4-1c-0.2-0.2-0.8-0.5-1.7-1
		c-1.1-0.6-1.8-1.1-2.2-1.7c-0.4-0.5-0.5-1.1-0.5-1.8c0-0.8,0.3-1.5,0.9-2.1c0.6-0.5,1.4-0.8,2.3-0.8c0.5,0,1,0.1,1.6,0.3
		c0.2,0.1,0.3,0.1,0.4,0.1c0.1,0,0.2-0.1,0.3-0.4c0-0.1,0.1-0.1,0.1-0.1c0.1,0,0.1,0.1,0.1,0.2c0,0,0,0.2,0,0.4c0,0.2,0,0.4,0,0.5
		c0,0.5,0,0.9,0.1,1.3c0,0,0,0.1,0,0.1c0,0.1,0,0.1-0.1,0.1c-0.1,0-0.2-0.2-0.3-0.5c-0.1-0.3-0.2-0.6-0.5-0.9
		c-0.2-0.3-0.5-0.5-0.7-0.7c-0.3-0.2-0.6-0.3-1-0.3c-0.6,0-1,0.1-1.3,0.4c-0.3,0.3-0.5,0.6-0.5,1.1c0,0.4,0.2,0.7,0.5,1
		c0.3,0.3,0.9,0.7,1.8,1.2c1.1,0.6,1.8,1,2.1,1.4C265.7,55.5,266,56.1,266,56.9z"/>
	<linearGradient id="SVGID_23_" gradientUnits="userSpaceOnUse" x1="88.3676" y1="54.7713" x2="277.738" y2="54.7713">
		<stop  offset="0" style="stop-color:#906026"/>
		<stop  offset="0.5" style="stop-color:#FAF4A2"/>
		<stop  offset="1" style="stop-color:#906026"/>
	</linearGradient>
	<path style="fill:url(#SVGID_23_);" d="M277.5,52.4c0,0.1,0,0.1-0.1,0.1c-0.1,0-0.2-0.2-0.3-0.6c-0.2-0.7-0.4-1.2-0.7-1.5
		c-0.3-0.3-0.8-0.4-1.5-0.4c-0.3,0-0.5,0-0.7,0v8.8c0,0.2,0.1,0.4,0.2,0.5c0.1,0.1,0.5,0.1,1.1,0.2c0.1,0,0.2,0.1,0.2,0.1
		c0,0.1-0.1,0.1-0.2,0.1c0,0-0.1,0-0.2,0c-0.1,0-0.3,0-0.4,0l-1.5,0l-2.5,0.1c-0.1,0-0.2,0-0.2-0.1c0-0.1,0-0.1,0.1-0.1
		c0,0,0.2,0,0.5,0c0.5,0,0.8-0.1,0.9-0.4c0-0.1,0-1.1,0-2.9v-6.1c-0.1,0-0.2,0-0.4,0c-0.8,0-1.4,0.1-1.7,0.4
		c-0.4,0.3-0.6,0.8-0.7,1.5c-0.1,0.4-0.2,0.6-0.3,0.6c-0.1,0-0.1-0.1-0.1-0.2c0-0.1,0-0.3,0.1-0.8c0.1-0.9,0.1-1.6,0.1-1.9h0.2h1.1
		c0,0,0.4,0,1,0c0.7,0,1.5,0,2.5,0c0.6,0,1.1,0,1.5,0c0.4,0,0.9,0,1.2,0c0.3,0,0.6,0,0.7,0c0,0.6,0.1,1.4,0.2,2.4
		C277.5,52.3,277.5,52.4,277.5,52.4z"/>
</g>
</svg>
